<?xml version="1.0" encoding="UTF-8" standalone="no"?>
<svg
   width="51.896233"
   height="44.420773"
   viewBox="0 0 13.730878 11.752997"
   version="1.1"
   id="svg8"
   inkscape:version="1.1.2 (0a00cf5339, 2022-02-04)"
   sodipodi:docname="ytsend.svg"
   xmlns:inkscape="http://www.inkscape.org/namespaces/inkscape"
   xmlns:sodipodi="http://sodipodi.sourceforge.net/DTD/sodipodi-0.dtd"
   xmlns="http://www.w3.org/2000/svg"
   xmlns:svg="http://www.w3.org/2000/svg"
   xmlns:rdf="http://www.w3.org/1999/02/22-rdf-syntax-ns#"
   xmlns:cc="http://creativecommons.org/ns#"
   xmlns:dc="http://purl.org/dc/elements/1.1/">
  <defs
     id="defs2">
    <linearGradient
       id="linearGradient2871"
       inkscape:swatch="solid">
      <stop
         style="stop-color:#000000;stop-opacity:1;"
         offset="0"
         id="stop2869" />
    </linearGradient>
  </defs>
  <sodipodi:namedview
     id="base"
     pagecolor="#ffffff"
     bordercolor="#666666"
     borderopacity="1.0"
     inkscape:pageopacity="0.0"
     inkscape:pageshadow="2"
     inkscape:zoom="5.6568543"
     inkscape:cx="21.478368"
     inkscape:cy="24.218407"
     inkscape:document-units="mm"
     inkscape:current-layer="text3837"
     inkscape:document-rotation="0"
     showgrid="false"
     units="px"
     inkscape:window-width="1920"
     inkscape:window-height="1011"
     inkscape:window-x="0"
     inkscape:window-y="32"
     inkscape:window-maximized="1"
     inkscape:pagecheckerboard="0" />
  <metadata
     id="metadata5">
    <rdf:RDF>
      <cc:Work
         rdf:about="">
        <dc:format>image/svg+xml</dc:format>
        <dc:type
           rdf:resource="http://purl.org/dc/dcmitype/StillImage" />
      </cc:Work>
    </rdf:RDF>
  </metadata>
  <g
     inkscape:label="Layer 1"
     inkscape:groupmode="layer"
     id="layer1"
     transform="translate(-19.452493,-24.928148)">
    <g
       aria-label="YT"
       id="text3837"
       style="font-size:4.93889px;line-height:1.25;stroke-width:0.264583">
      <g
         id="g5892">
        <rect
           style="fill:#535d6c;stroke:#000000;stroke-width:0.897073;stroke-linecap:round;stroke-linejoin:round;stroke-miterlimit:4;stroke-dasharray:none;stroke-opacity:1"
           id="rect845-8"
           width="12.833805"
           height="10.855923"
           x="19.90103"
           y="25.376684"
           ry="2.6340768" />
        <rect
           style="fill:#ffffff;fill-opacity:1;stroke:#000000;stroke-width:0.517754;stroke-linecap:round;stroke-linejoin:round;stroke-miterlimit:4;stroke-dasharray:none;stroke-opacity:1"
           id="rect1152"
           width="8.1569862"
           height="6.1994824"
           x="22.140577"
           y="27.694134"
           ry="0.32058418" />
        <path
           d="m 22.733085,29.196996 h 1.01527 l 0.819933,1.282954 0.819933,-1.282954 h 1.017682 l -1.372182,2.083594 v 1.516876 H 24.105267 V 31.28059 Z"
           style="font-weight:bold;-inkscape-font-specification:'sans-serif Bold'"
           id="path5764" />
        <path
           d="m 26.381787,29.196996 h 3.318317 v 0.701766 h -1.193726 v 2.898704 h -0.928454 v -2.898704 h -1.196137 z"
           style="font-weight:bold;-inkscape-font-specification:'sans-serif Bold'"
           id="path5766" />
      </g>
    </g>
  </g>
</svg>
